{
  "manifestVersion": "3.2",
  "admin": {
    "address": "0x714876fb44FA89759b0dC12866272137DcFb8733",
    "txHash": "0x84a3db559ac117d0839084a8880e149e79a0d687700460a690e6f8baed052aca"
  },
  "proxies": [
    {
      "address": "0x2F3cd100A5Ab6607dD4826e88A16D1cca9F37dCf",
      "txHash": "0x19439e7a646860b59d0da5fc034b9febc27ce3e800c9eeb0a8cc5225aafa0938",
      "kind": "transparent"
    },
    {
      "address": "0xC3CA99B69e2F5528416D5d62FDa196674F861F39",
      "txHash": "0xbba613dc206ed203e21bed13193d6374f04d2e9b8b5adc8012e359ff21db73a4",
      "kind": "transparent"
    }
  ],
  "impls": {
    "b2945d8762c42f91d9a6029c49e19e3a839864a485448cbfbfe2b5d55bb82f1e": {
      "address": "0xFc000eE08047C9374384E2657E01C3F88D223dbc",
      "txHash": "0x40e73788bacfa35e47a910b48fd65a2ca19f37047b3ed926ec6c8cf095e0fa35",
      "layout": {
        "solcVersion": "0.8.9",
        "storage": [
          {
            "label": "_initialized",
            "offset": 0,
            "slot": "0",
            "type": "t_uint8",
            "contract": "Initializable",
            "src": "@openzeppelin/contracts-upgradeable/proxy/utils/Initializable.sol:62",
            "retypedFrom": "bool"
          },
          {
            "label": "_initializing",
            "offset": 1,
            "slot": "0",
            "type": "t_bool",
            "contract": "Initializable",
            "src": "@openzeppelin/contracts-upgradeable/proxy/utils/Initializable.sol:67"
          },
          {
            "label": "__gap",
            "offset": 0,
            "slot": "1",
            "type": "t_array(t_uint256)50_storage",
            "contract": "ContextUpgradeable",
            "src": "@openzeppelin/contracts-upgradeable/utils/ContextUpgradeable.sol:36"
          },
          {
            "label": "__gap",
            "offset": 0,
            "slot": "51",
            "type": "t_array(t_uint256)50_storage",
            "contract": "ERC165Upgradeable",
            "src": "@openzeppelin/contracts-upgradeable/utils/introspection/ERC165Upgradeable.sol:41"
          },
          {
            "label": "_balances",
            "offset": 0,
            "slot": "101",
            "type": "t_mapping(t_uint256,t_mapping(t_address,t_uint256))",
            "contract": "ERC1155Upgradeable",
            "src": "@openzeppelin/contracts-upgradeable/token/ERC1155/ERC1155Upgradeable.sol:25"
          },
          {
            "label": "_operatorApprovals",
            "offset": 0,
            "slot": "102",
            "type": "t_mapping(t_address,t_mapping(t_address,t_bool))",
            "contract": "ERC1155Upgradeable",
            "src": "@openzeppelin/contracts-upgradeable/token/ERC1155/ERC1155Upgradeable.sol:28"
          },
          {
            "label": "_uri",
            "offset": 0,
            "slot": "103",
            "type": "t_string_storage",
            "contract": "ERC1155Upgradeable",
            "src": "@openzeppelin/contracts-upgradeable/token/ERC1155/ERC1155Upgradeable.sol:31"
          },
          {
            "label": "__gap",
            "offset": 0,
            "slot": "104",
            "type": "t_array(t_uint256)47_storage",
            "contract": "ERC1155Upgradeable",
            "src": "@openzeppelin/contracts-upgradeable/token/ERC1155/ERC1155Upgradeable.sol:528"
          },
          {
            "label": "_owner",
            "offset": 0,
            "slot": "151",
            "type": "t_address",
            "contract": "OwnableUpgradeable",
            "src": "@openzeppelin/contracts-upgradeable/access/OwnableUpgradeable.sol:22"
          },
          {
            "label": "__gap",
            "offset": 0,
            "slot": "152",
            "type": "t_array(t_uint256)49_storage",
            "contract": "OwnableUpgradeable",
            "src": "@openzeppelin/contracts-upgradeable/access/OwnableUpgradeable.sol:94"
          },
          {
            "label": "_tokenIds",
            "offset": 0,
            "slot": "201",
            "type": "t_struct(Counter)2055_storage",
            "contract": "StarmintEth",
            "src": "contracts/StarmintEth.sol:13"
          },
          {
            "label": "_royaltyBasisPoints",
            "offset": 0,
            "slot": "202",
            "type": "t_uint256",
            "contract": "StarmintEth",
            "src": "contracts/StarmintEth.sol:15"
          },
          {
            "label": "_royaltyAddress",
            "offset": 0,
            "slot": "203",
            "type": "t_address_payable",
            "contract": "StarmintEth",
            "src": "contracts/StarmintEth.sol:16"
          },
          {
            "label": "_royaltyReceivers",
            "offset": 0,
            "slot": "204",
            "type": "t_mapping(t_uint256,t_array(t_struct(RoyaltyReceiver)3251_storage)dyn_storage)",
            "contract": "StarmintEth",
            "src": "contracts/StarmintEth.sol:24"
          },
          {
            "label": "_tokenURIs",
            "offset": 0,
            "slot": "205",
            "type": "t_mapping(t_uint256,t_string_storage)",
            "contract": "StarmintEth",
            "src": "contracts/StarmintEth.sol:25"
          },
          {
            "label": "name",
            "offset": 0,
            "slot": "206",
            "type": "t_string_storage",
            "contract": "StarmintEth",
            "src": "contracts/StarmintEth.sol:27"
          },
          {
            "label": "contractURI",
            "offset": 0,
            "slot": "207",
            "type": "t_string_storage",
            "contract": "StarmintEth",
            "src": "contracts/StarmintEth.sol:28"
          }
        ],
        "types": {
          "t_address": {
            "label": "address",
            "numberOfBytes": "20"
          },
          "t_address_payable": {
            "label": "address payable",
            "numberOfBytes": "20"
          },
          "t_array(t_struct(RoyaltyReceiver)3251_storage)dyn_storage": {
            "label": "struct StarmintEth.RoyaltyReceiver[]",
            "numberOfBytes": "32"
          },
          "t_array(t_uint256)47_storage": {
            "label": "uint256[47]",
            "numberOfBytes": "1504"
          },
          "t_array(t_uint256)49_storage": {
            "label": "uint256[49]",
            "numberOfBytes": "1568"
          },
          "t_array(t_uint256)50_storage": {
            "label": "uint256[50]",
            "numberOfBytes": "1600"
          },
          "t_bool": {
            "label": "bool",
            "numberOfBytes": "1"
          },
          "t_mapping(t_address,t_bool)": {
            "label": "mapping(address => bool)",
            "numberOfBytes": "32"
          },
          "t_mapping(t_address,t_mapping(t_address,t_bool))": {
            "label": "mapping(address => mapping(address => bool))",
            "numberOfBytes": "32"
          },
          "t_mapping(t_address,t_uint256)": {
            "label": "mapping(address => uint256)",
            "numberOfBytes": "32"
          },
          "t_mapping(t_uint256,t_array(t_struct(RoyaltyReceiver)3251_storage)dyn_storage)": {
            "label": "mapping(uint256 => struct StarmintEth.RoyaltyReceiver[])",
            "numberOfBytes": "32"
          },
          "t_mapping(t_uint256,t_mapping(t_address,t_uint256))": {
            "label": "mapping(uint256 => mapping(address => uint256))",
            "numberOfBytes": "32"
          },
          "t_mapping(t_uint256,t_string_storage)": {
            "label": "mapping(uint256 => string)",
            "numberOfBytes": "32"
          },
          "t_string_storage": {
            "label": "string",
            "numberOfBytes": "32"
          },
          "t_struct(Counter)2055_storage": {
            "label": "struct CountersUpgradeable.Counter",
            "members": [
              {
                "label": "_value",
                "type": "t_uint256",
                "offset": 0,
                "slot": "0"
              }
            ],
            "numberOfBytes": "32"
          },
          "t_struct(RoyaltyReceiver)3251_storage": {
            "label": "struct StarmintEth.RoyaltyReceiver",
            "members": [
              {
                "label": "receiver",
                "type": "t_address_payable",
                "offset": 0,
                "slot": "0"
              },
              {
                "label": "basisPoints",
                "type": "t_uint256",
                "offset": 0,
                "slot": "1"
              },
              {
                "label": "royaltyAddress",
                "type": "t_address_payable",
                "offset": 0,
                "slot": "2"
              }
            ],
            "numberOfBytes": "96"
          },
          "t_uint256": {
            "label": "uint256",
            "numberOfBytes": "32"
          },
          "t_uint8": {
            "label": "uint8",
            "numberOfBytes": "1"
          }
        }
      }
    },
    "19a84063a7f5d174f1017beb77e464350537ec4f7745df58a69000ae11f5715a": {
      "address": "0x9575c32F913758C0Da56f0f9940Cb40AFc59F172",
      "txHash": "0x0391ce6ba7db7e1a10b3af396b970055525cd1f247838068ea01a44a19c4a37f",
      "layout": {
        "solcVersion": "0.8.9",
        "storage": [
          {
            "label": "_initialized",
            "offset": 0,
            "slot": "0",
            "type": "t_uint8",
            "contract": "Initializable",
            "src": "@openzeppelin/contracts-upgradeable/proxy/utils/Initializable.sol:62",
            "retypedFrom": "bool"
          },
          {
            "label": "_initializing",
            "offset": 1,
            "slot": "0",
            "type": "t_bool",
            "contract": "Initializable",
            "src": "@openzeppelin/contracts-upgradeable/proxy/utils/Initializable.sol:67"
          },
          {
            "label": "__gap",
            "offset": 0,
            "slot": "1",
            "type": "t_array(t_uint256)50_storage",
            "contract": "ContextUpgradeable",
            "src": "@openzeppelin/contracts-upgradeable/utils/ContextUpgradeable.sol:36"
          },
          {
            "label": "__gap",
            "offset": 0,
            "slot": "51",
            "type": "t_array(t_uint256)50_storage",
            "contract": "ERC165Upgradeable",
            "src": "@openzeppelin/contracts-upgradeable/utils/introspection/ERC165Upgradeable.sol:41"
          },
          {
            "label": "_balances",
            "offset": 0,
            "slot": "101",
            "type": "t_mapping(t_uint256,t_mapping(t_address,t_uint256))",
            "contract": "ERC1155Upgradeable",
            "src": "@openzeppelin/contracts-upgradeable/token/ERC1155/ERC1155Upgradeable.sol:25"
          },
          {
            "label": "_operatorApprovals",
            "offset": 0,
            "slot": "102",
            "type": "t_mapping(t_address,t_mapping(t_address,t_bool))",
            "contract": "ERC1155Upgradeable",
            "src": "@openzeppelin/contracts-upgradeable/token/ERC1155/ERC1155Upgradeable.sol:28"
          },
          {
            "label": "_uri",
            "offset": 0,
            "slot": "103",
            "type": "t_string_storage",
            "contract": "ERC1155Upgradeable",
            "src": "@openzeppelin/contracts-upgradeable/token/ERC1155/ERC1155Upgradeable.sol:31"
          },
          {
            "label": "__gap",
            "offset": 0,
            "slot": "104",
            "type": "t_array(t_uint256)47_storage",
            "contract": "ERC1155Upgradeable",
            "src": "@openzeppelin/contracts-upgradeable/token/ERC1155/ERC1155Upgradeable.sol:528"
          },
          {
            "label": "_owner",
            "offset": 0,
            "slot": "151",
            "type": "t_address",
            "contract": "OwnableUpgradeable",
            "src": "@openzeppelin/contracts-upgradeable/access/OwnableUpgradeable.sol:22"
          },
          {
            "label": "__gap",
            "offset": 0,
            "slot": "152",
            "type": "t_array(t_uint256)49_storage",
            "contract": "OwnableUpgradeable",
            "src": "@openzeppelin/contracts-upgradeable/access/OwnableUpgradeable.sol:94"
          },
          {
            "label": "_tokenIds",
            "offset": 0,
            "slot": "201",
            "type": "t_struct(Counter)2055_storage",
            "contract": "StarmintEth",
            "src": "contracts/StarmintEth.sol:13"
          },
          {
            "label": "_royaltyBasisPoints",
            "offset": 0,
            "slot": "202",
            "type": "t_uint256",
            "contract": "StarmintEth",
            "src": "contracts/StarmintEth.sol:15"
          },
          {
            "label": "_royaltyAddress",
            "offset": 0,
            "slot": "203",
            "type": "t_address_payable",
            "contract": "StarmintEth",
            "src": "contracts/StarmintEth.sol:16"
          },
          {
            "label": "_royaltyReceivers",
            "offset": 0,
            "slot": "204",
            "type": "t_mapping(t_uint256,t_array(t_struct(RoyaltyReceiver)3625_storage)dyn_storage)",
            "contract": "StarmintEth",
            "src": "contracts/StarmintEth.sol:24"
          },
          {
            "label": "_tokenURIs",
            "offset": 0,
            "slot": "205",
            "type": "t_mapping(t_uint256,t_string_storage)",
            "contract": "StarmintEth",
            "src": "contracts/StarmintEth.sol:25"
          },
          {
            "label": "name",
            "offset": 0,
            "slot": "206",
            "type": "t_string_storage",
            "contract": "StarmintEth",
            "src": "contracts/StarmintEth.sol:27"
          },
          {
            "label": "contractURI",
            "offset": 0,
            "slot": "207",
            "type": "t_string_storage",
            "contract": "StarmintEth",
            "src": "contracts/StarmintEth.sol:28"
          }
        ],
        "types": {
          "t_address": {
            "label": "address",
            "numberOfBytes": "20"
          },
          "t_address_payable": {
            "label": "address payable",
            "numberOfBytes": "20"
          },
          "t_array(t_struct(RoyaltyReceiver)3625_storage)dyn_storage": {
            "label": "struct StarmintEth.RoyaltyReceiver[]",
            "numberOfBytes": "32"
          },
          "t_array(t_uint256)47_storage": {
            "label": "uint256[47]",
            "numberOfBytes": "1504"
          },
          "t_array(t_uint256)49_storage": {
            "label": "uint256[49]",
            "numberOfBytes": "1568"
          },
          "t_array(t_uint256)50_storage": {
            "label": "uint256[50]",
            "numberOfBytes": "1600"
          },
          "t_bool": {
            "label": "bool",
            "numberOfBytes": "1"
          },
          "t_mapping(t_address,t_bool)": {
            "label": "mapping(address => bool)",
            "numberOfBytes": "32"
          },
          "t_mapping(t_address,t_mapping(t_address,t_bool))": {
            "label": "mapping(address => mapping(address => bool))",
            "numberOfBytes": "32"
          },
          "t_mapping(t_address,t_uint256)": {
            "label": "mapping(address => uint256)",
            "numberOfBytes": "32"
          },
          "t_mapping(t_uint256,t_array(t_struct(RoyaltyReceiver)3625_storage)dyn_storage)": {
            "label": "mapping(uint256 => struct StarmintEth.RoyaltyReceiver[])",
            "numberOfBytes": "32"
          },
          "t_mapping(t_uint256,t_mapping(t_address,t_uint256))": {
            "label": "mapping(uint256 => mapping(address => uint256))",
            "numberOfBytes": "32"
          },
          "t_mapping(t_uint256,t_string_storage)": {
            "label": "mapping(uint256 => string)",
            "numberOfBytes": "32"
          },
          "t_string_storage": {
            "label": "string",
            "numberOfBytes": "32"
          },
          "t_struct(Counter)2055_storage": {
            "label": "struct CountersUpgradeable.Counter",
            "members": [
              {
                "label": "_value",
                "type": "t_uint256",
                "offset": 0,
                "slot": "0"
              }
            ],
            "numberOfBytes": "32"
          },
          "t_struct(RoyaltyReceiver)3625_storage": {
            "label": "struct StarmintEth.RoyaltyReceiver",
            "members": [
              {
                "label": "receiver",
                "type": "t_address_payable",
                "offset": 0,
                "slot": "0"
              },
              {
                "label": "basisPoints",
                "type": "t_uint256",
                "offset": 0,
                "slot": "1"
              },
              {
                "label": "royaltyAddress",
                "type": "t_address_payable",
                "offset": 0,
                "slot": "2"
              }
            ],
            "numberOfBytes": "96"
          },
          "t_uint256": {
            "label": "uint256",
            "numberOfBytes": "32"
          },
          "t_uint8": {
            "label": "uint8",
            "numberOfBytes": "1"
          }
        }
      }
    },
    "61de7ce966157594bcf88723029e276974ed61d023f47687a65c84046de4cb5e": {
      "address": "0x04c64518AdEb1af78049573fB86002Cc496dBC08",
      "txHash": "0xc10a3e9808c59fb68c3ad4326428ad34615e28f2d5c319a58d52446c83ce8e53",
      "layout": {
        "solcVersion": "0.8.9",
        "storage": [
          {
            "label": "_initialized",
            "offset": 0,
            "slot": "0",
            "type": "t_uint8",
            "contract": "Initializable",
            "src": "@openzeppelin/contracts-upgradeable/proxy/utils/Initializable.sol:62",
            "retypedFrom": "bool"
          },
          {
            "label": "_initializing",
            "offset": 1,
            "slot": "0",
            "type": "t_bool",
            "contract": "Initializable",
            "src": "@openzeppelin/contracts-upgradeable/proxy/utils/Initializable.sol:67"
          },
          {
            "label": "__gap",
            "offset": 0,
            "slot": "1",
            "type": "t_array(t_uint256)50_storage",
            "contract": "ContextUpgradeable",
            "src": "@openzeppelin/contracts-upgradeable/utils/ContextUpgradeable.sol:36"
          },
          {
            "label": "__gap",
            "offset": 0,
            "slot": "51",
            "type": "t_array(t_uint256)50_storage",
            "contract": "ERC165Upgradeable",
            "src": "@openzeppelin/contracts-upgradeable/utils/introspection/ERC165Upgradeable.sol:41"
          },
          {
            "label": "_balances",
            "offset": 0,
            "slot": "101",
            "type": "t_mapping(t_uint256,t_mapping(t_address,t_uint256))",
            "contract": "ERC1155Upgradeable",
            "src": "@openzeppelin/contracts-upgradeable/token/ERC1155/ERC1155Upgradeable.sol:25"
          },
          {
            "label": "_operatorApprovals",
            "offset": 0,
            "slot": "102",
            "type": "t_mapping(t_address,t_mapping(t_address,t_bool))",
            "contract": "ERC1155Upgradeable",
            "src": "@openzeppelin/contracts-upgradeable/token/ERC1155/ERC1155Upgradeable.sol:28"
          },
          {
            "label": "_uri",
            "offset": 0,
            "slot": "103",
            "type": "t_string_storage",
            "contract": "ERC1155Upgradeable",
            "src": "@openzeppelin/contracts-upgradeable/token/ERC1155/ERC1155Upgradeable.sol:31"
          },
          {
            "label": "__gap",
            "offset": 0,
            "slot": "104",
            "type": "t_array(t_uint256)47_storage",
            "contract": "ERC1155Upgradeable",
            "src": "@openzeppelin/contracts-upgradeable/token/ERC1155/ERC1155Upgradeable.sol:528"
          },
          {
            "label": "_owner",
            "offset": 0,
            "slot": "151",
            "type": "t_address",
            "contract": "OwnableUpgradeable",
            "src": "@openzeppelin/contracts-upgradeable/access/OwnableUpgradeable.sol:22"
          },
          {
            "label": "__gap",
            "offset": 0,
            "slot": "152",
            "type": "t_array(t_uint256)49_storage",
            "contract": "OwnableUpgradeable",
            "src": "@openzeppelin/contracts-upgradeable/access/OwnableUpgradeable.sol:94"
          },
          {
            "label": "_tokenIds",
            "offset": 0,
            "slot": "201",
            "type": "t_struct(Counter)2055_storage",
            "contract": "StarmintEth",
            "src": "contracts/StarmintEth.sol:13"
          },
          {
            "label": "_royaltyBasisPoints",
            "offset": 0,
            "slot": "202",
            "type": "t_uint256",
            "contract": "StarmintEth",
            "src": "contracts/StarmintEth.sol:15"
          },
          {
            "label": "_royaltyAddress",
            "offset": 0,
            "slot": "203",
            "type": "t_address_payable",
            "contract": "StarmintEth",
            "src": "contracts/StarmintEth.sol:16"
          },
          {
            "label": "_royaltyReceivers",
            "offset": 0,
            "slot": "204",
            "type": "t_mapping(t_uint256,t_array(t_struct(RoyaltyReceiver)3633_storage)dyn_storage)",
            "contract": "StarmintEth",
            "src": "contracts/StarmintEth.sol:24"
          },
          {
            "label": "_tokenURIs",
            "offset": 0,
            "slot": "205",
            "type": "t_mapping(t_uint256,t_string_storage)",
            "contract": "StarmintEth",
            "src": "contracts/StarmintEth.sol:25"
          },
          {
            "label": "name",
            "offset": 0,
            "slot": "206",
            "type": "t_string_storage",
            "contract": "StarmintEth",
            "src": "contracts/StarmintEth.sol:27"
          },
          {
            "label": "metadataURI",
            "offset": 0,
            "slot": "207",
            "type": "t_string_storage",
            "contract": "StarmintEth",
            "src": "contracts/StarmintEth.sol:28"
          }
        ],
        "types": {
          "t_address": {
            "label": "address",
            "numberOfBytes": "20"
          },
          "t_address_payable": {
            "label": "address payable",
            "numberOfBytes": "20"
          },
          "t_array(t_struct(RoyaltyReceiver)3633_storage)dyn_storage": {
            "label": "struct StarmintEth.RoyaltyReceiver[]",
            "numberOfBytes": "32"
          },
          "t_array(t_uint256)47_storage": {
            "label": "uint256[47]",
            "numberOfBytes": "1504"
          },
          "t_array(t_uint256)49_storage": {
            "label": "uint256[49]",
            "numberOfBytes": "1568"
          },
          "t_array(t_uint256)50_storage": {
            "label": "uint256[50]",
            "numberOfBytes": "1600"
          },
          "t_bool": {
            "label": "bool",
            "numberOfBytes": "1"
          },
          "t_mapping(t_address,t_bool)": {
            "label": "mapping(address => bool)",
            "numberOfBytes": "32"
          },
          "t_mapping(t_address,t_mapping(t_address,t_bool))": {
            "label": "mapping(address => mapping(address => bool))",
            "numberOfBytes": "32"
          },
          "t_mapping(t_address,t_uint256)": {
            "label": "mapping(address => uint256)",
            "numberOfBytes": "32"
          },
          "t_mapping(t_uint256,t_array(t_struct(RoyaltyReceiver)3633_storage)dyn_storage)": {
            "label": "mapping(uint256 => struct StarmintEth.RoyaltyReceiver[])",
            "numberOfBytes": "32"
          },
          "t_mapping(t_uint256,t_mapping(t_address,t_uint256))": {
            "label": "mapping(uint256 => mapping(address => uint256))",
            "numberOfBytes": "32"
          },
          "t_mapping(t_uint256,t_string_storage)": {
            "label": "mapping(uint256 => string)",
            "numberOfBytes": "32"
          },
          "t_string_storage": {
            "label": "string",
            "numberOfBytes": "32"
          },
          "t_struct(Counter)2055_storage": {
            "label": "struct CountersUpgradeable.Counter",
            "members": [
              {
                "label": "_value",
                "type": "t_uint256",
                "offset": 0,
                "slot": "0"
              }
            ],
            "numberOfBytes": "32"
          },
          "t_struct(RoyaltyReceiver)3633_storage": {
            "label": "struct StarmintEth.RoyaltyReceiver",
            "members": [
              {
                "label": "receiver",
                "type": "t_address_payable",
                "offset": 0,
                "slot": "0"
              },
              {
                "label": "basisPoints",
                "type": "t_uint256",
                "offset": 0,
                "slot": "1"
              },
              {
                "label": "royaltyAddress",
                "type": "t_address_payable",
                "offset": 0,
                "slot": "2"
              }
            ],
            "numberOfBytes": "96"
          },
          "t_uint256": {
            "label": "uint256",
            "numberOfBytes": "32"
          },
          "t_uint8": {
            "label": "uint8",
            "numberOfBytes": "1"
          }
        }
      }
    }
  }
}
